origin                 0.5 0.0
angle                  90
unitLength             0.4
unitLengthDegreeScaler 1.0 /2.0

command F draw 1
command + rotate 25
command - rotate -25
command [ push
command ] pop
command G color A0FF11

axiom GX

production F FF
production X F+[-F-XF-X][+FF][--XF[+X]][++F-X]

